<?xml version="1.0" encoding="UTF-8"?>
<svg width="26px" height="25px" viewBox="0 0 26 25" version="1.1" xmlns="http://www.w3.org/2000/svg" xmlns:xlink="http://www.w3.org/1999/xlink">
    <!-- Generator: Sketch 53 (72520) - https://sketchapp.com -->
    <title>icon/article_white-outline</title>
    <desc>Created with Sketch.</desc>
    <g id="Symbols" stroke="none" stroke-width="1" fill="none" fill-rule="evenodd">
        <g id="icon/article_white-outline" stroke="#FFFFFF" stroke-width="1.5">
            <g transform="translate(0.000000, 0.370000)">
                <polygon id="Fill-222" points="24.4274 0.5829 8.6524 0.5829 8.6524 7.6309 0.9324 7.6309 0.9324 23.4059 16.7074 23.4059 16.7074 16.3569 24.4274 16.3569"></polygon>
                <path d="M20.1237,4.8016 L10.8267,14.0986" id="Stroke-224"></path>
                <polyline id="Stroke-226" points="12.1999 4.5887 20.3399 4.5867 20.3269 12.6237"></polyline>
            </g>
        </g>
    </g>
</svg>